{
	"success":true,
	"data":[
		{
			"field_of_study":"Software and applications development and analysis",
			"name": "Artificial intelligence in control applications",
			"ects":5,
			"semester":"winter",
			"course_code":"61E40",
			"language":"EN",
			"faculty": "FMECS",
			"examination":"A",
			"checked":false
		},
		{
			"field_of_study":"Software and applications development and analysis",
			"name": "Asynchronous WWW interfaces",
			"ects":3,
			"semester":"winter",
			"course_code":"61E41",
			"language":"EN",
			"faculty": "FMECS",
			"examination":"A",
			"checked":false
		},
		{
			"field_of_study":"Software and applications development and analysis",
			"name": "Concurrent and Distributed Programming",
			"ects":6,
			"semester":"winter",
			"course_code":"61E43",
			"language":"EN",
			"faculty": "FMECS",
			"examination":"EW",
			"checked":false
		},
		{
			"field_of_study":"Computer Use",
			"name": "Business Law and Protection of Intellectual Property",
			"ects":2,
			"semester":"winter",
			"course_code":"61D00",
			"language":"EN",
			"faculty": "FEE",
			"examination":"A",
			"checked":false
		},
		{
			"field_of_study":"Computer Use",
			"name": "Concurrent Processing",
			"ects":3,
			"semester":"winter",
			"course_code":"61D01",
			"language":"EN",
			"faculty": "FEE",
			"examination":"A",
			"checked":false
		},
		{
			"field_of_study":"Computer Use",
			"name": "Cryptography",
			"ects":5,
			"semester":"winter",
			"course_code":"61D02",
			"language":"EN",
			"faculty": "FEE",
			"examination":"EW",
			"checked":false
		}
	]
}